<?xml version="1.0" encoding="utf-8"?>
<!-- Generator: Adobe Illustrator 21.0.0, SVG Export Plug-In . SVG Version: 6.00 Build 0)  -->
<svg version="1.1" id="Layer_1" xmlns="http://www.w3.org/2000/svg" xmlns:xlink="http://www.w3.org/1999/xlink" x="0px" y="0px"
	 viewBox="0 0 73.5 78" style="enable-background:new 0 0 73.5 78;" xml:space="preserve">
<style type="text/css">
	.st0{fill:none;stroke:#EAD073;stroke-width:5;stroke-linecap:round;stroke-linejoin:round;stroke-miterlimit:10;}
</style>
<polygon class="st0" points="61.7,75.5 11.8,75.5 36.7,21.7 36.7,21.7 "/>
<polyline class="st0" points="45.6,2.5 24.3,48.6 29.7,52.6 36.7,48.6 43.7,52.6 49.2,48.6 27.8,2.5 "/>
<line class="st0" x1="2.5" y1="75.5" x2="71" y2="75.5"/>
</svg>
