<?xml version="1.0" encoding="utf-8"?>
<!-- Generator: Adobe Illustrator 21.0.0, SVG Export Plug-In . SVG Version: 6.00 Build 0)  -->
<svg version="1.1" id="Layer_1" xmlns="http://www.w3.org/2000/svg" xmlns:xlink="http://www.w3.org/1999/xlink" x="0px" y="0px"
	 viewBox="0 0 41.3 28.6" style="enable-background:new 0 0 41.3 28.6;" xml:space="preserve">
<style type="text/css">
	.st0{fill:none;stroke:#EAD073;stroke-width:2;stroke-linecap:round;stroke-linejoin:round;stroke-miterlimit:10;}
</style>
<ellipse transform="matrix(0.1288 -0.9917 0.9917 0.1288 11.6533 26.3844)" class="st0" cx="20.8" cy="6.6" rx="5.6" ry="5.3"/>
<path class="st0" d="M29.4,21.9c0-5.4-3.9-9.8-8.6-9.8s-8.6,4.4-8.6,9.8s3.9,5.7,8.6,5.7S29.4,27.3,29.4,21.9z"/>
<ellipse transform="matrix(0.1288 -0.9917 0.9917 0.1288 18.8285 42.8838)" class="st0" cx="33.8" cy="10.7" rx="4.2" ry="3.9"/>
<path class="st0" d="M28.5,25.4c1.2,1.1,3.1,1.2,5.3,1.2c3.6,0,6.4-0.3,6.4-4.3s-2.9-7.3-6.4-7.3c-2.1,0-4,1.2-5.2,2.9"/>
<ellipse transform="matrix(0.9917 -0.1288 0.1288 0.9917 -1.3196 1.0488)" class="st0" cx="7.4" cy="10.7" rx="3.9" ry="4.2"/>
<path class="st0" d="M12.8,25.4c-1.2,1.1-3.1,1.2-5.3,1.2c-3.6,0-6.4-0.3-6.4-4.3s2.9-7.3,6.4-7.3c2.1,0,4,1.2,5.2,2.9"/>
<line class="st0" x1="20.8" y1="16.2" x2="20.8" y2="23.7"/>
</svg>
