<?xml version="1.0" encoding="utf-8"?>
<!-- Generator: Adobe Illustrator 21.0.0, SVG Export Plug-In . SVG Version: 6.00 Build 0)  -->
<svg version="1.1" id="Layer_1" xmlns="http://www.w3.org/2000/svg" xmlns:xlink="http://www.w3.org/1999/xlink" x="0px" y="0px"
	 viewBox="0 0 33.2 34.4" style="enable-background:new 0 0 33.2 34.4;" xml:space="preserve">
<style type="text/css">
	.st0{fill:none;stroke:#EAD073;stroke-width:2;stroke-linecap:round;stroke-linejoin:round;stroke-miterlimit:10;}
</style>
<rect x="1" y="30.1" class="st0" width="31.2" height="3.3"/>
<line class="st0" x1="32.2" y1="18.9" x2="1" y2="18.9"/>
<path class="st0" d="M29.2,18.9c0-7-5.6-12.6-12.6-12.6S4,12,4,18.9"/>
<line class="st0" x1="16.6" y1="18.9" x2="16.6" y2="30.1"/>
<line class="st0" x1="21.3" y1="18.9" x2="21.3" y2="30.1"/>
<line class="st0" x1="25.3" y1="18.9" x2="25.3" y2="30.1"/>
<line class="st0" x1="28.4" y1="18.9" x2="28.4" y2="30.1"/>
<line class="st0" x1="11.9" y1="18.9" x2="11.9" y2="30.1"/>
<line class="st0" x1="8" y1="18.9" x2="8" y2="30.1"/>
<line class="st0" x1="4.8" y1="18.9" x2="4.8" y2="30.1"/>
<line class="st0" x1="16.6" y1="6.3" x2="16.6" y2="1"/>
<rect x="16.6" y="1" class="st0" width="4.3" height="2.7"/>
</svg>
