<?xml version="1.0" encoding="utf-8"?>
<!-- Generator: Adobe Illustrator 21.0.0, SVG Export Plug-In . SVG Version: 6.00 Build 0)  -->
<svg version="1.1" id="Layer_1" xmlns="http://www.w3.org/2000/svg" xmlns:xlink="http://www.w3.org/1999/xlink" x="0px" y="0px"
	 viewBox="0 0 37 36.3" style="enable-background:new 0 0 37 36.3;" xml:space="preserve">
<style type="text/css">
	.st0{fill:none;stroke:#EAD073;stroke-width:2;stroke-linecap:round;stroke-linejoin:round;stroke-miterlimit:10;}
</style>
<path class="st0" d="M14.1,34.3c-0.7,0.7-1.9,0.7-2.6,0l-2.8-2.8c-0.3-0.3-0.8-0.3-1.1,0l-0.1,0.1c-0.2,0.2-0.2,0.4-0.2,0.6
	c0,1-0.5,1.9-1.4,2.6c-1.1,0.7-2.5,0.7-3.5,0c-1.7-1.2-1.8-3.5-0.4-4.8C2.5,29.3,3.3,29,4.1,29c0.2,0,0.4-0.1,0.6-0.2l0.1-0.1
	c0.3-0.3,0.3-0.8,0-1.1l-2.4-2.4c-0.7-0.7-0.7-1.9,0-2.6l2.4-2.4C5,19.8,5,19.3,4.7,19l-0.1-0.1c-0.2-0.2-0.4-0.2-0.6-0.2
	c-1,0-1.9-0.5-2.6-1.4c-0.7-1.1-0.7-2.5,0-3.5C2.7,12.1,5,12,6.4,13.3c0.6,0.6,0.9,1.4,0.9,2.2c0,0.2,0.1,0.4,0.2,0.6l0.1,0.1
	c0.3,0.3,0.8,0.3,1.1,0l2.4-2.4c0.7-0.7,1.9-0.7,2.6,0l2.8,2.8c0.3,0.3,0.8,0.3,1.1,0l0.1-0.1c0.2-0.2,0.2-0.4,0.2-0.6
	c0-1,0.5-1.9,1.4-2.6c1.1-0.7,2.5-0.7,3.5,0c1.7,1.2,1.8,3.5,0.4,4.8c-0.6,0.6-1.4,0.9-2.2,0.9c-0.2,0-0.4,0.1-0.6,0.2l-0.1,0.1
	c-0.3,0.3-0.3,0.8,0,1.1l2.4,2.4c0.7,0.7,0.7,1.9,0,2.6l-2.4,2.4c-0.3,0.3-0.8,0.3-1.1,0l-0.1-0.1c-0.2-0.2-0.2-0.4-0.2-0.6
	c0-1-0.5-1.9-1.4-2.6c-1.1-0.7-2.5-0.7-3.5,0c-1.7,1.2-1.8,3.5-0.4,4.8c0.6,0.6,1.4,0.9,2.2,0.9c0.2,0,0.4,0.1,0.6,0.2l0.1,0.1
	c0.3,0.3,0.3,0.8,0,1.1L14.1,34.3z"/>
<path class="st0" d="M14.1,14.1c-0.7-0.7-0.7-1.9,0-2.6l2.8-2.8c0.3-0.3,0.3-0.8,0-1.1l-0.1-0.1c-0.2-0.2-0.4-0.2-0.6-0.2
	c-1,0-1.9-0.5-2.6-1.4c-0.7-1.1-0.7-2.5,0-3.5c1.2-1.7,3.5-1.8,4.8-0.4c0.6,0.6,0.9,1.4,0.9,2.2c0,0.2,0.1,0.4,0.2,0.6l0.1,0.1
	C20,5,20.5,5,20.8,4.7l2.4-2.4c0.7-0.7,1.9-0.7,2.6,0l2.4,2.4c0.3,0.3,0.8,0.3,1.1,0l0.1-0.1c0.2-0.2,0.2-0.4,0.2-0.6
	c0-1,0.5-1.9,1.4-2.6c1.1-0.7,2.5-0.7,3.5,0c1.7,1.2,1.8,3.5,0.4,4.8c-0.6,0.6-1.4,0.9-2.2,0.9c-0.2,0-0.4,0.1-0.6,0.2l-0.1,0.1
	c-0.3,0.3-0.3,0.8,0,1.1l2.4,2.4c0.7,0.7,0.7,1.9,0,2.6l-2.8,2.8c-0.3,0.3-0.3,0.8,0,1.1l0.1,0.1c0.2,0.2,0.4,0.2,0.6,0.2
	c1,0,1.9,0.5,2.6,1.4c0.7,1.1,0.7,2.5,0,3.5c-1.2,1.7-3.5,1.8-4.8,0.4c-0.6-0.6-0.9-1.4-0.9-2.2c0-0.2-0.1-0.4-0.2-0.6L29,20.5
	c-0.3-0.3-0.8-0.3-1.1,0l-2.4,2.4c-0.7,0.7-1.9,0.7-2.6,0l-2.4-2.4c-0.3-0.3-0.3-0.8,0-1.1l0.1-0.1c0.2-0.2,0.4-0.2,0.6-0.2
	c1,0,1.9-0.5,2.6-1.4c0.7-1.1,0.7-2.5,0-3.5c-1.2-1.7-3.5-1.8-4.8-0.4c-0.6,0.6-0.9,1.4-0.9,2.2c0,0.2-0.1,0.4-0.2,0.6l-0.1,0.1
	c-0.3,0.3-0.8,0.3-1.1,0L14.1,14.1z"/>
</svg>
