<?xml version="1.0" encoding="utf-8"?>
<!-- Generator: Adobe Illustrator 21.0.0, SVG Export Plug-In . SVG Version: 6.00 Build 0)  -->
<svg version="1.1" id="Layer_1" xmlns="http://www.w3.org/2000/svg" xmlns:xlink="http://www.w3.org/1999/xlink" x="0px" y="0px"
	 viewBox="0 0 36.9 36" style="enable-background:new 0 0 36.9 36;" xml:space="preserve">
<style type="text/css">
	.st0{fill:none;stroke:#EAD073;stroke-width:2;stroke-linecap:round;stroke-linejoin:round;stroke-miterlimit:10;}
</style>
<path class="st0" d="M24.9,35c-0.1,0-0.1,0-0.2,0c-1.4-0.2-4.1-3.7-5.6-5.7c-1.9,1-5.9,1.3-9.9-2.6c-1.9-1.8-2.3-3.9-2.7-5.5
	c-0.4-2-0.7-3-2.5-3.2c-0.9-0.1-1.7-0.4-2.4,0.9c-0.2,0.4-0.7-0.6-0.5-1.9c0.1-1.2,0.9-3,2.4-4.2c1.5-1.2,3.2-0.4,3.8-0.1
	c1,0.5,2,1.1,3.4,2l3.5-13c0.1-0.3,0.3-0.5,0.6-0.6s0.6,0,0.8,0.2c0.2,0.2,3.8,4,4.3,6.8c0.3,1.6,0.3,2.8,0.2,3.8
	c3.3-2.2,6.9-4.7,9.1-6.3C30.6,4.4,32,3.5,33,2.8c1.5-1,2.1-1.4,2.7-0.9c0.2,0.1,0.2,0.3,0.3,0.6c0,0.4,0.4,9.1-3.1,14.5
	c-2.8,4.5-8.9,5.2-11.8,5.4c1.1,1,3.1,2.4,5.1,2.3c3.9-0.2,6.6,0,6.7,1.7c0.2,2.3-2.8,5.2-3.7,6C28.3,33.3,26.3,35,24.9,35z
	 M10.6,14.6c0.1,0.1,1.7,1.1,1.8,1.2c0.7,0.1,4.8-2.3,7.5-4"/>
<line class="st0" x1="35.9" y1="4.9" x2="22.6" y2="13.8"/>
<line class="st0" x1="35.5" y1="9.2" x2="28.5" y2="13.8"/>
</svg>
