<?xml version="1.0" encoding="utf-8"?>
<!-- Generator: Adobe Illustrator 21.0.0, SVG Export Plug-In . SVG Version: 6.00 Build 0)  -->
<svg version="1.1" id="Layer_1" xmlns="http://www.w3.org/2000/svg" xmlns:xlink="http://www.w3.org/1999/xlink" x="0px" y="0px"
	 viewBox="0 0 81.9 75.8" style="enable-background:new 0 0 81.9 75.8;" xml:space="preserve">
<style type="text/css">
	.st0{fill:none;stroke:#EAD073;stroke-width:5;stroke-linecap:round;stroke-linejoin:round;stroke-miterlimit:10;}
</style>
<path class="st0" d="M36.4,44.1c-2.3-2.3-6-2.3-8.3,0l-2.3,2.3l-2.3-2.3c-2.3-2.3-6-2.3-8.3,0s-2.3,6,0,8.3l10.5,10.5l0,0l0,0
	l10.5-10.5C38.6,50,38.6,46.3,36.4,44.1z"/>
<circle class="st0" cx="25.8" cy="14.7" r="12.2"/>
<path class="st0" d="M25.8,26.8L25.8,26.8c-11,0-20.3,8.3-21.4,19.3L2.5,65.4c-0.4,4.3,2.9,7.9,7.2,7.9h32.2c4.3,0,7.6-3.7,7.2-7.9
	l-1.9-19.2C46.1,35.2,36.8,26.8,25.8,26.8z"/>
<circle class="st0" cx="62" cy="29.8" r="9"/>
<path class="st0" d="M25.2,73.3H74c3.2,0,5.6-2.7,5.3-5.9l-1.4-14.3C77.1,45,70.2,38.8,62,38.8l0,0c-6.5,0-12.2,3.9-14.6,9.6"/>
</svg>
