<?xml version="1.0" encoding="utf-8"?>
<!-- Generator: Adobe Illustrator 21.0.0, SVG Export Plug-In . SVG Version: 6.00 Build 0)  -->
<svg version="1.1" id="Layer_1" xmlns="http://www.w3.org/2000/svg" xmlns:xlink="http://www.w3.org/1999/xlink" x="0px" y="0px"
	 viewBox="0 0 25 31" style="enable-background:new 0 0 25 31;" xml:space="preserve">
<style type="text/css">
	.st0{fill:none;stroke:#EAD073;stroke-width:2;stroke-linecap:round;stroke-linejoin:round;stroke-miterlimit:10;}
</style>
<path class="st0" d="M24,4.5L24,4.5c-7.6-1.3-15.4-1.3-23,0l0,0V21l0,0c7.6-1.3,15.4-1.3,23,0l0,0V4.5z"/>
<line class="st0" x1="12.5" y1="3.5" x2="12.5" y2="20"/>
<line class="st0" x1="1" y1="12.3" x2="24" y2="12.3"/>
<line class="st0" x1="24" y1="5.2" x2="1" y2="19.3"/>
<line class="st0" x1="1" y1="5.2" x2="24" y2="19.3"/>
<line class="st0" x1="1" y1="1" x2="1" y2="30"/>
</svg>
