<?xml version="1.0" encoding="UTF-8" standalone="no"?>
<svg width="2880px" height="115px" viewBox="0 0 2880 115" version="1.1" xmlns="http://www.w3.org/2000/svg" xmlns:xlink="http://www.w3.org/1999/xlink">
    <!-- Generator: Sketch 41.1 (35376) - http://www.bohemiancoding.com/sketch -->
    <title>SvgjsSvg1024</title>
    <desc>Created with Sketch.</desc>
    <defs></defs>
    <g id="Page-1" stroke="none" stroke-width="1" fill="none" fill-rule="evenodd">
        <g id="pay-bg">
            <g id="SvgjsSvg1024">
                <path d="M0,30 C0,30 458.282,0 1177.42,0 C1898.28,0 2880,30 2880,30 L2880,1480 C2880,1480 1900.25,1450 1180.38,1450 C460.25,1450 0,1480 0,1480 L0,30 Z" id="SvgjsPath1026" fill="#EAD073"></path>
                <path d="M0,115 C0,115 892.117,30 1785.3,30 C2680.61,30 3577,67.28 3577,67.28 L3577,1646 L0,1646 L0,115 Z" id="SvgjsPath1027" fill="#4eabb0"></path>
            </g>
        </g>
    </g>
</svg>