<?xml version="1.0" encoding="utf-8"?>
<!-- Generator: Adobe Illustrator 21.0.0, SVG Export Plug-In . SVG Version: 6.00 Build 0)  -->
<svg version="1.1" id="Layer_1" xmlns="http://www.w3.org/2000/svg" xmlns:xlink="http://www.w3.org/1999/xlink" x="0px" y="0px"
	 viewBox="0 0 69.3 37.6" style="enable-background:new 0 0 69.3 37.6;" xml:space="preserve">
<style type="text/css">
	.st0{fill:#757b7c;}
</style>
<path class="st0" d="M69.2,17.1L61.3,5.6c-0.2-0.3-0.5-0.4-0.8-0.4H42.9l-7.7-5c-0.3-0.2-0.8-0.2-1.1,0l-7.7,5H8.9
	c-0.3,0-0.6,0.2-0.8,0.4L0.2,17.1c-0.2,0.3-0.2,0.7-0.1,1s0.5,0.5,0.9,0.5h3v18c0,0.6,0.4,1,1,1h6h3.8h5.9h4.1h19.8h4.1h5.9h3.8h6
	c0.6,0,1-0.4,1-1v-18h3c0.4,0,0.7-0.2,0.9-0.5S69.4,17.4,69.2,17.1z M34.7,2.2l12.5,8.1h-0.8h-3.8h-16h-3.8h-0.7L34.7,2.2z
	 M57.3,20.4h-1.8v-1.8h1.8V20.4z M54.5,22.4h0.9v2.8v6.6h-0.9c-0.6,0-1,0.4-1,1v2.8h-3.9v-2.8c0-0.6-0.4-1-1-1h-1.2v-2.8
	c0-0.6-0.4-1-1-1h-0.9v-5.6h0.9c0.6,0,1-0.4,1-1v-2.8h6.1v2.8C53.5,22,54,22.4,54.5,22.4z M40,31.8v-3.6C40,25.4,37.6,23,34.7,23
	c-2.9,0-5.3,2.4-5.4,5.3v3.6h-1.6v-2.8c0-0.6-0.4-1-1-1h-0.9v-5.6h0.9h16h0.9v5.6h-0.9c-0.6,0-1,0.4-1,1v2.8H40z M31.3,31.8v-3.5
	c0-1.8,1.5-3.3,3.4-3.3c1.8,0,3.3,1.5,3.4,3.3v3.6H31.3z M20.7,31.8c-0.6,0-1,0.4-1,1v2.8h-3.9v-2.8c0-0.6-0.4-1-1-1h-0.9v-6.6v-2.8
	h0.9c0.6,0,1-0.4,1-1v-2.8h6.1v2.8c0,0.6,0.4,1,1,1h0.9v5.6h-0.9c-0.6,0-1,0.4-1,1v2.8H20.7z M13.8,20.4H12v-1.8h1.8V20.4z
	 M41.7,12.3v4.4h-1.1c0,0,0,0,0,0l-12.9,0v-4.4H41.7z M27.7,20.4v-1.8l14,0v1.8H27.7z M45.4,20.4h-1.8v-1.8h1.8V20.4z M25.7,20.4
	h-1.8v-8.2h1.8V20.4z M23.9,30.1h0.8c0,0,0.1,0,0.1,0s0.1,0,0.1,0h0.8v1.8h-1.8V30.1z M43.7,30.1h0.8c0,0,0.1,0,0.1,0s0.1,0,0.1,0
	h0.8v1.8h-1.8V30.1z M45.4,16.6h-1.8v-4.4h1.8V16.6z M9.4,7.1h13.9l-2.8,1.8c-0.7,0.4-1,1.3-0.8,2c0.2,0.8,0.9,1.3,1.7,1.3h0.3v4.4
	h-7.1H11H5H2.9L9.4,7.1z M6,18.6h4v2.8c0,0.6,0.4,1,1,1h0.9v2.8v6.6H11c-0.6,0-1,0.4-1,1v2.8H6V18.6z M12,35.6v-1.8h0.8
	c0,0,0.1,0,0.1,0s0.1,0,0.1,0h0.8v1.8H12z M44.5,35.6H24.8h-3.1v-1.8h1.2h3.8h16h3.8h1.2v1.8H44.5z M55.5,35.6v-1.8h0.8
	c0,0,0.1,0,0.1,0s0.1,0,0.1,0h0.8v1.8H55.5z M63.3,35.6h-4v-2.8c0-0.6-0.4-1-1-1h-0.9v-6.6v-2.8h0.9c0.6,0,1-0.4,1-1v-2.8h4V35.6z
	 M64.3,16.6h-6h-3.8h-7.1v-4.4h0.4c0.8,0,1.5-0.5,1.7-1.3s-0.1-1.6-0.8-2L46,7.1h13.9l6.5,9.5H64.3z"/>
</svg>
